%YAML 1.1
%TAG !u! tag:unity3d.com,2011:
--- !u!114 &11400000
MonoBehaviour:
  m_ObjectHideFlags: 0
  m_CorrespondingSourceObject: {fileID: 0}
  m_PrefabInstance: {fileID: 0}
  m_PrefabAsset: {fileID: 0}
  m_GameObject: {fileID: 0}
  m_Enabled: 1
  m_EditorHideFlags: 0
  m_Script: {fileID: 11500000, guid: 0990a2abe6858d94d9cd085be6dbfadd, type: 3}
  m_Name: Poutre
  m_EditorClassIdentifier: 
  Name: Beam
  ScrapTier: 1
  Sprite: {fileID: 21300000, guid: 5e6b4fec634d2964586f1cd209d55536, type: 3}
